ds,y
2017-12-30 00:00:00,37176.95
2017-12-31 00:00:00,95431.53
2018-01-01 00:00:00,121881.01
2018-01-02 00:00:00,146845.98
2018-01-03 00:00:00,134041.33
2018-01-04 00:00:00,129693.48
2018-01-05 00:00:00,111627.56
2018-01-06 00:00:00,110934.48
2018-01-07 00:00:00,118306.64
2018-01-08 00:00:00,139238.73
2018-01-09 00:00:00,127787.67
2018-01-10 00:00:00,126843.07
2018-01-11 00:00:00,117334.18
2018-01-12 00:00:00,122500.21
2018-01-13 00:00:00,110771.94
2018-01-14 00:00:00,119968.27
2018-01-15 00:00:00,131252.88
2018-01-16 00:00:00,126551.57
2018-01-17 00:00:00,113418.79
2018-01-18 00:00:00,115165.26
2018-01-19 00:00:00,114676.91
2018-01-20 00:00:00,111515.66
2018-01-21 00:00:00,115508.31
2018-01-22 00:00:00,124371.82
2018-01-23 00:00:00,115018.21
2018-01-24 00:00:00,113451.70
2018-01-25 00:00:00,116722.35
2018-01-26 00:00:00,118061.29
2018-01-27 00:00:00,109246.46
2018-01-28 00:00:00,124446.64
2018-01-29 00:00:00,128141.57
2018-01-30 00:00:00,121033.47
2018-01-31 00:00:00,118285.99
2018-02-01 00:00:00,123033.83
2018-02-02 00:00:00,120682.49
2018-02-03 00:00:00,116975.56
2018-02-04 00:00:00,122880.24
2018-02-05 00:00:00,135343.24
2018-02-06 00:00:00,128360.49
2018-02-07 00:00:00,117957.49
2018-02-08 00:00:00,119590.30
2018-02-09 00:00:00,127255.30
2018-02-10 00:00:00,112943.40
2018-02-11 00:00:00,120458.00
2018-02-12 00:00:00,140356.69
2018-02-13 00:00:00,115989.13
2018-02-14 00:00:00,102252.93
2018-02-15 00:00:00,115748.25
2018-02-16 00:00:00,123118.52
2018-02-17 00:00:00,113066.35
2018-02-18 00:00:00,129384.51
2018-02-19 00:00:00,137562.80
2018-02-20 00:00:00,128488.11
2018-02-21 00:00:00,127174.88
2018-02-22 00:00:00,128811.24
2018-02-23 00:00:00,131776.65
2018-02-24 00:00:00,125635.40
2018-02-25 00:00:00,127301.38
2018-02-26 00:00:00,137179.38
2018-02-27 00:00:00,130861.79
2018-02-28 00:00:00,134859.50
2018-03-01 00:00:00,126244.68
2018-03-02 00:00:00,124137.45
2018-03-03 00:00:00,113736.19
2018-03-04 00:00:00,125718.50
2018-03-05 00:00:00,138005.87
2018-03-06 00:00:00,131700.21
2018-03-07 00:00:00,128275.46
2018-03-08 00:00:00,127442.88
2018-03-09 00:00:00,127338.34
2018-03-10 00:00:00,121526.93
2018-03-11 00:00:00,118188.37
2018-03-12 00:00:00,133041.06
2018-03-13 00:00:00,117254.39
2018-03-14 00:00:00,125050.84
2018-03-15 00:00:00,122562.15
2018-03-16 00:00:00,119355.64
2018-03-17 00:00:00,114550.44
2018-03-18 00:00:00,124120.80
2018-03-19 00:00:00,131762.72
2018-03-20 00:00:00,133176.03
2018-03-21 00:00:00,133669.06
2018-03-22 00:00:00,120087.64
2018-03-23 00:00:00,122240.75
2018-03-24 00:00:00,117880.98
2018-03-25 00:00:00,127248.66
2018-03-26 00:00:00,132187.13
2018-03-27 00:00:00,121112.53
2018-03-28 00:00:00,122070.93
2018-03-29 00:00:00,123601.29
2018-03-30 00:00:00,133794.06
2018-03-31 00:00:00,113133.85
2018-04-01 00:00:00,120674.13
2018-04-02 00:00:00,147148.12
2018-04-03 00:00:00,136876.24
2018-04-04 00:00:00,126469.16
2018-04-05 00:00:00,121381.80
2018-04-06 00:00:00,124208.00
2018-04-07 00:00:00,129931.72
2018-04-08 00:00:00,138409.48
2018-04-09 00:00:00,143809.28
2018-04-10 00:00:00,136363.24
2018-04-11 00:00:00,137068.35
2018-04-12 00:00:00,133552.04
2018-04-13 00:00:00,123252.44
2018-04-14 00:00:00,124334.90
2018-04-15 00:00:00,132962.83
2018-04-16 00:00:00,140529.50
2018-04-17 00:00:00,129915.21
2018-04-18 00:00:00,129414.17
2018-04-19 00:00:00,137818.70
2018-04-20 00:00:00,130792.89
2018-04-21 00:00:00,117621.69
2018-04-22 00:00:00,118842.04
2018-04-23 00:00:00,132413.26
2018-04-24 00:00:00,134630.67
2018-04-25 00:00:00,139409.83
2018-04-26 00:00:00,124737.56
2018-04-27 00:00:00,126987.73
2018-04-28 00:00:00,118632.17
2018-04-29 00:00:00,125053.94
2018-04-30 00:00:00,139971.65
2018-05-01 00:00:00,130799.50
2018-05-02 00:00:00,136985.82
2018-05-03 00:00:00,123485.55
2018-05-04 00:00:00,130419.04
2018-05-05 00:00:00,114821.86
2018-05-06 00:00:00,123905.91
2018-05-07 00:00:00,149649.48
2018-05-08 00:00:00,132309.38
2018-05-09 00:00:00,122996.76
2018-05-10 00:00:00,132518.47
2018-05-11 00:00:00,98137.73
2018-05-12 00:00:00,119965.84
2018-05-13 00:00:00,124829.56
2018-05-14 00:00:00,148549.92
2018-05-15 00:00:00,130781.10
2018-05-16 00:00:00,137738.86
2018-05-17 00:00:00,131132.10
2018-05-18 00:00:00,129745.69
2018-05-19 00:00:00,124286.48
2018-05-20 00:00:00,130917.13
2018-05-21 00:00:00,209391.42
2018-05-22 00:00:00,204805.09
2018-05-23 00:00:00,200704.27
2018-05-24 00:00:00,221182.55
2018-05-25 00:00:00,133530.90
2018-05-26 00:00:00,121025.85
2018-05-27 00:00:00,124414.23
2018-05-28 00:00:00,135049.33
2018-05-29 00:00:00,148794.33
2018-05-30 00:00:00,134265.29
2018-05-31 00:00:00,137383.20
2018-06-01 00:00:00,133432.68
2018-06-02 00:00:00,126302.09
2018-06-03 00:00:00,130725.03
2018-06-04 00:00:00,143630.01
2018-06-05 00:00:00,132582.51
2018-06-06 00:00:00,130967.45
2018-06-07 00:00:00,131259.54
2018-06-08 00:00:00,120308.40
2018-06-09 00:00:00,115458.20
2018-06-10 00:00:00,124236.47
2018-06-11 00:00:00,146999.74
2018-06-12 00:00:00,134008.83
2018-06-13 00:00:00,125834.64
2018-06-14 00:00:00,125320.74
2018-06-15 00:00:00,121542.16
2018-06-16 00:00:00,113572.31
2018-06-17 00:00:00,128658.60
2018-06-18 00:00:00,147724.81
2018-06-19 00:00:00,135012.05
2018-06-20 00:00:00,127486.12
2018-06-21 00:00:00,122907.02
2018-06-22 00:00:00,130997.70
2018-06-23 00:00:00,115788.27
2018-06-24 00:00:00,120313.90
2018-06-25 00:00:00,135830.75
2018-06-26 00:00:00,120821.51
2018-06-27 00:00:00,127907.59
2018-06-28 00:00:00,123231.49
2018-06-29 00:00:00,122731.98
2018-06-30 00:00:00,117301.77
2018-07-01 00:00:00,102317.55
2018-07-02 00:00:00,111615.78
2018-07-03 00:00:00,107033.61
2018-07-04 00:00:00,108670.30
2018-07-05 00:00:00,128799.63
2018-07-06 00:00:00,114102.96
2018-07-07 00:00:00,111006.15
2018-07-08 00:00:00,122384.41
2018-07-09 00:00:00,137346.32
2018-07-10 00:00:00,121342.23
2018-07-11 00:00:00,122548.39
2018-07-12 00:00:00,115351.28
2018-07-13 00:00:00,116612.05
2018-07-14 00:00:00,106889.06
2018-07-15 00:00:00,124610.67
2018-07-16 00:00:00,135809.67
2018-07-17 00:00:00,121410.38
2018-07-18 00:00:00,130019.20
2018-07-19 00:00:00,123677.54
2018-07-20 00:00:00,123866.91
2018-07-21 00:00:00,109665.60
2018-07-22 00:00:00,121173.80
2018-07-23 00:00:00,139044.53
2018-07-24 00:00:00,120730.55
2018-07-25 00:00:00,121636.71
2018-07-26 00:00:00,115193.50
2018-07-27 00:00:00,126389.25
2018-07-28 00:00:00,118457.09
2018-07-29 00:00:00,120656.99
2018-07-30 00:00:00,128004.76
2018-07-31 00:00:00,131413.21
2018-08-01 00:00:00,134799.70
2018-08-02 00:00:00,125541.64
2018-08-03 00:00:00,118895.76
2018-08-04 00:00:00,98112.82
2018-08-05 00:00:00,103426.08
2018-08-06 00:00:00,175586.49
2018-08-07 00:00:00,131033.62
2018-08-08 00:00:00,135278.31
2018-08-09 00:00:00,137253.59
2018-08-10 00:00:00,131224.43
2018-08-11 00:00:00,144617.23
2018-08-12 00:00:00,139313.52
2018-08-13 00:00:00,140342.15
2018-08-14 00:00:00,139413.91
2018-08-15 00:00:00,144033.54
2018-08-16 00:00:00,127826.39
2018-08-17 00:00:00,139367.01
2018-08-18 00:00:00,129191.33
2018-08-19 00:00:00,133674.23
2018-08-20 00:00:00,146832.99
2018-08-21 00:00:00,121352.29
2018-08-22 00:00:00,138167.83
2018-08-23 00:00:00,128015.97
2018-08-24 00:00:00,137214.33
2018-08-25 00:00:00,120461.26
2018-08-26 00:00:00,129739.79
2018-08-27 00:00:00,145843.52
2018-08-28 00:00:00,126040.27
2018-08-29 00:00:00,134613.53
2018-08-30 00:00:00,127252.68
2018-08-31 00:00:00,133342.09
2018-09-01 00:00:00,121735.98
2018-09-02 00:00:00,124879.63
2018-09-03 00:00:00,124006.62
2018-09-04 00:00:00,121314.63
2018-09-05 00:00:00,151047.42
2018-09-06 00:00:00,125303.79
2018-09-07 00:00:00,131848.93
2018-09-08 00:00:00,124618.49
2018-09-09 00:00:00,133547.58
2018-09-10 00:00:00,144610.63
2018-09-11 00:00:00,135006.83
2018-09-12 00:00:00,136464.98
2018-09-13 00:00:00,128785.22
2018-09-14 00:00:00,140157.85
2018-09-15 00:00:00,122910.22
2018-09-16 00:00:00,138581.86
2018-09-17 00:00:00,137576.04
2018-09-18 00:00:00,132535.88
2018-09-19 00:00:00,125762.71
2018-09-20 00:00:00,132723.28
2018-09-21 00:00:00,122600.99
2018-09-22 00:00:00,115669.44
2018-09-23 00:00:00,122794.93
2018-09-24 00:00:00,136348.51
2018-09-25 00:00:00,125839.48
2018-09-26 00:00:00,128225.73
2018-09-27 00:00:00,112737.42
2018-09-28 00:00:00,127794.28
2018-09-29 00:00:00,117526.85
2018-09-30 00:00:00,128810.33
2018-10-01 00:00:00,138584.40
2018-10-02 00:00:00,121279.80
2018-10-03 00:00:00,119214.29
2018-10-04 00:00:00,115114.41
2018-10-05 00:00:00,139925.29
2018-10-06 00:00:00,120546.05
2018-10-07 00:00:00,136051.14
2018-10-08 00:00:00,137203.73
2018-10-09 00:00:00,137932.24
2018-10-10 00:00:00,132851.05
2018-10-11 00:00:00,136594.21
2018-10-12 00:00:00,137629.76
2018-10-13 00:00:00,121950.80
2018-10-14 00:00:00,136810.90
2018-10-15 00:00:00,141747.14
2018-10-16 00:00:00,130756.78
2018-10-17 00:00:00,121331.35
2018-10-18 00:00:00,142557.91
2018-10-19 00:00:00,134372.11
2018-10-20 00:00:00,126204.76
2018-10-21 00:00:00,133552.17
2018-10-22 00:00:00,137393.57
2018-10-23 00:00:00,123975.36
2018-10-24 00:00:00,143057.70
2018-10-25 00:00:00,150562.25
2018-10-26 00:00:00,103568.72
2018-10-27 00:00:00,127220.65
2018-10-28 00:00:00,134980.27
2018-10-29 00:00:00,137686.67
2018-10-30 00:00:00,128340.96
2018-10-31 00:00:00,131483.34
2018-11-01 00:00:00,127388.41
2018-11-02 00:00:00,123084.61
2018-11-03 00:00:00,115218.10
2018-11-04 00:00:00,148691.57
2018-11-05 00:00:00,137447.03
2018-11-06 00:00:00,135740.86
2018-11-07 00:00:00,134088.73
2018-11-08 00:00:00,120543.51
2018-11-09 00:00:00,135063.64
2018-11-10 00:00:00,131058.55
2018-11-11 00:00:00,132246.01
2018-11-12 00:00:00,136727.51
2018-11-13 00:00:00,129928.49
2018-11-14 00:00:00,126399.67
2018-11-15 00:00:00,117230.07
2018-11-16 00:00:00,126508.09
2018-11-17 00:00:00,128353.29
2018-11-18 00:00:00,121174.05
2018-11-19 00:00:00,132325.95
2018-11-20 00:00:00,117966.70
2018-11-21 00:00:00,112495.46
2018-11-22 00:00:00,97838.69
2018-11-23 00:00:00,136099.50
2018-11-24 00:00:00,127820.18
2018-11-25 00:00:00,131166.03
2018-11-26 00:00:00,135545.89
2018-11-27 00:00:00,131050.62
2018-11-28 00:00:00,124673.93
2018-11-29 00:00:00,122122.92
2018-11-30 00:00:00,128365.42
2018-12-01 00:00:00,119672.42
2018-12-02 00:00:00,120608.35
2018-12-03 00:00:00,127939.70
2018-12-04 00:00:00,128911.15
2018-12-05 00:00:00,121104.44
2018-12-06 00:00:00,117288.67
2018-12-07 00:00:00,123316.40
2018-12-08 00:00:00,119081.55
2018-12-09 00:00:00,128624.92
2018-12-10 00:00:00,133737.90
2018-12-11 00:00:00,121798.66
2018-12-12 00:00:00,127525.26
2018-12-13 00:00:00,123628.53
2018-12-14 00:00:00,119075.28
2018-12-15 00:00:00,116463.27
2018-12-16 00:00:00,119311.00
2018-12-17 00:00:00,128292.10
2018-12-18 00:00:00,122682.08
2018-12-19 00:00:00,119275.01
2018-12-20 00:00:00,115231.93
2018-12-21 00:00:00,114191.02
2018-12-22 00:00:00,109652.58
2018-12-23 00:00:00,114432.14
2018-12-24 00:00:00,96112.14
2018-12-25 00:00:00,103017.34
2018-12-26 00:00:00,136369.51
2018-12-27 00:00:00,132940.99
2018-12-28 00:00:00,125819.39
2018-12-29 00:00:00,127637.19
2018-12-30 00:00:00,126075.97
2018-12-31 00:00:00,117532.44
2019-01-01 00:00:00,124143.72
2019-01-02 00:00:00,140139.87
2019-01-03 00:00:00,144898.81
2019-01-04 00:00:00,141628.47
2019-01-05 00:00:00,133119.99
2019-01-06 00:00:00,127740.07
2019-01-07 00:00:00,131943.76
2019-01-08 00:00:00,138607.96
2019-01-09 00:00:00,133233.35
2019-01-10 00:00:00,125775.36
2019-01-11 00:00:00,123866.62
2019-01-12 00:00:00,123916.50
2019-01-13 00:00:00,119665.18
2019-01-14 00:00:00,136660.32
2019-01-15 00:00:00,124143.51
2019-01-16 00:00:00,130637.58
2019-01-17 00:00:00,129215.28
2019-01-18 00:00:00,120081.60
2019-01-19 00:00:00,123568.59
2019-01-20 00:00:00,124485.02
2019-01-21 00:00:00,134641.80
2019-01-22 00:00:00,129269.62
2019-01-23 00:00:00,114421.45
2019-01-24 00:00:00,118121.00
2019-01-25 00:00:00,132259.91
2019-01-26 00:00:00,126340.32
2019-01-27 00:00:00,130178.11
2019-01-28 00:00:00,142740.43
2019-01-29 00:00:00,133483.82
2019-01-30 00:00:00,117591.89
2019-01-31 00:00:00,116371.34
2019-02-01 00:00:00,126244.04
2019-02-02 00:00:00,139346.90
2019-02-03 00:00:00,127691.60
2019-02-04 00:00:00,137307.35
2019-02-05 00:00:00,125231.31
2019-02-06 00:00:00,128833.65
2019-02-07 00:00:00,135877.79
2019-02-08 00:00:00,130744.49
2019-02-09 00:00:00,130264.56
2019-02-10 00:00:00,133748.87
2019-02-11 00:00:00,134337.44
2019-02-12 00:00:00,121134.74
2019-02-13 00:00:00,120174.01
2019-02-14 00:00:00,107402.03
2019-02-15 00:00:00,125525.22
2019-02-16 00:00:00,119949.49
2019-02-17 00:00:00,126658.84
2019-02-18 00:00:00,135032.72
2019-02-19 00:00:00,125058.79
2019-02-20 00:00:00,124819.08
2019-02-21 00:00:00,127257.72
2019-02-22 00:00:00,130032.87
2019-02-23 00:00:00,125145.84
2019-02-24 00:00:00,129774.54
2019-02-25 00:00:00,126727.76
2019-02-26 00:00:00,132460.91
2019-02-27 00:00:00,129268.48
2019-02-28 00:00:00,121622.99
2019-03-01 00:00:00,134277.28
2019-03-02 00:00:00,120432.50
2019-03-03 00:00:00,130824.93
2019-03-04 00:00:00,138337.39
2019-03-05 00:00:00,127484.96
2019-03-06 00:00:00,130573.40
2019-03-07 00:00:00,121682.76
2019-03-08 00:00:00,128932.30
2019-03-09 00:00:00,126811.59
2019-03-10 00:00:00,124639.78
2019-03-11 00:00:00,134022.74
2019-03-12 00:00:00,125648.34
2019-03-13 00:00:00,128214.84
2019-03-14 00:00:00,128313.47
2019-03-15 00:00:00,128477.28
2019-03-16 00:00:00,116923.51
2019-03-17 00:00:00,134064.71
2019-03-18 00:00:00,132928.90
2019-03-19 00:00:00,122018.64
2019-03-20 00:00:00,128421.77
2019-03-21 00:00:00,128351.01
2019-03-22 00:00:00,125009.07
2019-03-23 00:00:00,125905.69
2019-03-24 00:00:00,124738.83
2019-03-25 00:00:00,131586.71
2019-03-26 00:00:00,128720.85
2019-03-27 00:00:00,119972.90
2019-03-28 00:00:00,127328.92
2019-03-29 00:00:00,132886.98
2019-03-30 00:00:00,126337.19
2019-03-31 00:00:00,132726.60
2019-04-01 00:00:00,133756.64
2019-04-02 00:00:00,133103.04
2019-04-03 00:00:00,131623.21
2019-04-04 00:00:00,128537.54
2019-04-05 00:00:00,142365.82
2019-04-06 00:00:00,127138.11
2019-04-07 00:00:00,133000.19
2019-04-08 00:00:00,142419.83
2019-04-09 00:00:00,131558.62
2019-04-10 00:00:00,132240.63
2019-04-11 00:00:00,131954.55
2019-04-12 00:00:00,135882.38
2019-04-13 00:00:00,122647.71
2019-04-14 00:00:00,129888.20
2019-04-15 00:00:00,135252.35
2019-04-16 00:00:00,142295.27
2019-04-17 00:00:00,124126.93
2019-04-18 00:00:00,127007.59
2019-04-19 00:00:00,129732.86
2019-04-20 00:00:00,122349.52
2019-04-21 00:00:00,125915.25
2019-04-22 00:00:00,149017.82
2019-04-23 00:00:00,126538.85
2019-04-24 00:00:00,136529.19
2019-04-25 00:00:00,134129.71
2019-04-26 00:00:00,126904.51
2019-04-27 00:00:00,123410.64
2019-04-28 00:00:00,142705.65
2019-04-29 00:00:00,143543.90
2019-04-30 00:00:00,132553.46
2019-05-01 00:00:00,124744.84
2019-05-02 00:00:00,129129.71
2019-05-03 00:00:00,140629.62
2019-05-04 00:00:00,127486.34
2019-05-05 00:00:00,137894.90
2019-05-06 00:00:00,137822.22
2019-05-07 00:00:00,140791.26
2019-05-08 00:00:00,118902.61
2019-05-09 00:00:00,128303.30
2019-05-10 00:00:00,131340.09
2019-05-11 00:00:00,126367.78
2019-05-12 00:00:00,132327.11
2019-05-13 00:00:00,144090.58
2019-05-14 00:00:00,146727.90
2019-05-15 00:00:00,132337.16
2019-05-16 00:00:00,129857.93
2019-05-17 00:00:00,129978.77
2019-05-18 00:00:00,126318.75
2019-05-19 00:00:00,132970.18
2019-05-20 00:00:00,140024.27
2019-05-21 00:00:00,137537.38
2019-05-22 00:00:00,134812.32
2019-05-23 00:00:00,133255.89
2019-05-24 00:00:00,132981.40
2019-05-25 00:00:00,127730.58
2019-05-26 00:00:00,132476.55
2019-05-27 00:00:00,137049.00
2019-05-28 00:00:00,145931.17
2019-05-29 00:00:00,137809.95
2019-05-30 00:00:00,137382.46
2019-05-31 00:00:00,129825.99
2019-06-01 00:00:00,129819.10
2019-06-02 00:00:00,146386.15
2019-06-03 00:00:00,153082.71
2019-06-04 00:00:00,145708.85
2019-06-05 00:00:00,134472.95
2019-06-06 00:00:00,139695.41
2019-06-07 00:00:00,130817.70
2019-06-08 00:00:00,120810.37
2019-06-09 00:00:00,168164.38
2019-06-10 00:00:00,138045.35
2019-06-11 00:00:00,138604.16
2019-06-12 00:00:00,139298.66
2019-06-13 00:00:00,141238.42
2019-06-14 00:00:00,137202.86
2019-06-15 00:00:00,132695.22
2019-06-16 00:00:00,129296.41
2019-06-17 00:00:00,143437.48
2019-06-18 00:00:00,134598.82
2019-06-19 00:00:00,130043.27
2019-06-20 00:00:00,131710.56
2019-06-21 00:00:00,168848.38
2019-06-22 00:00:00,126833.27
2019-06-23 00:00:00,128976.26
2019-06-24 00:00:00,153564.37
2019-06-25 00:00:00,149505.77
2019-06-26 00:00:00,138824.46
2019-06-27 00:00:00,134216.69
2019-06-28 00:00:00,137995.38
2019-06-29 00:00:00,138935.57
2019-06-30 00:00:00,141919.54
2019-07-01 00:00:00,123518.05
2019-07-02 00:00:00,154927.48
2019-07-03 00:00:00,140607.79
2019-07-04 00:00:00,129594.86
2019-07-05 00:00:00,134091.71
2019-07-06 00:00:00,136101.51
2019-07-07 00:00:00,132734.39
2019-07-08 00:00:00,150029.18
2019-07-09 00:00:00,141906.40
2019-07-10 00:00:00,139770.79
2019-07-11 00:00:00,134520.79
2019-07-12 00:00:00,152828.81
2019-07-13 00:00:00,136250.22
2019-07-14 00:00:00,132478.66
2019-07-15 00:00:00,140482.67
2019-07-16 00:00:00,135675.91
2019-07-17 00:00:00,134983.88
2019-07-18 00:00:00,133639.26
2019-07-19 00:00:00,133348.45
2019-07-20 00:00:00,133133.83
2019-07-21 00:00:00,145509.14
2019-07-22 00:00:00,155263.29
2019-07-23 00:00:00,137740.54
2019-07-24 00:00:00,128203.78
2019-07-25 00:00:00,140985.73
2019-07-26 00:00:00,139375.95
2019-07-27 00:00:00,139212.10
2019-07-28 00:00:00,147229.25
2019-07-29 00:00:00,152042.82
2019-07-30 00:00:00,147303.01
2019-07-31 00:00:00,139129.87
2019-08-01 00:00:00,146941.91
2019-08-02 00:00:00,141567.37
2019-08-03 00:00:00,141375.14
2019-08-04 00:00:00,145210.48
2019-08-05 00:00:00,144495.55
2019-08-06 00:00:00,140230.27
2019-08-07 00:00:00,134564.25
2019-08-08 00:00:00,131138.31
2019-08-09 00:00:00,126679.82
2019-08-10 00:00:00,135980.34
2019-08-11 00:00:00,150795.33
2019-08-12 00:00:00,139760.11
2019-08-13 00:00:00,138330.30
2019-08-14 00:00:00,144470.08
2019-08-15 00:00:00,134812.37
2019-08-16 00:00:00,137030.33
2019-08-17 00:00:00,135009.74
2019-08-18 00:00:00,140733.06
2019-08-19 00:00:00,142619.94
2019-08-20 00:00:00,154511.40
2019-08-21 00:00:00,147698.45
2019-08-22 00:00:00,138257.63
2019-08-23 00:00:00,134972.50
2019-08-24 00:00:00,144564.06
2019-08-25 00:00:00,142850.26
2019-08-26 00:00:00,147042.06
2019-08-27 00:00:00,147184.87
2019-08-28 00:00:00,140170.66
2019-08-29 00:00:00,138440.33
2019-08-30 00:00:00,137356.94
2019-08-31 00:00:00,145846.00
2019-09-01 00:00:00,138043.33
2019-09-02 00:00:00,154967.28
2019-09-03 00:00:00,146059.37
2019-09-04 00:00:00,150656.67
2019-09-05 00:00:00,145713.18
2019-09-06 00:00:00,140871.51
2019-09-07 00:00:00,125583.59
2019-09-08 00:00:00,140155.82
2019-09-09 00:00:00,148168.30
2019-09-10 00:00:00,157041.84
2019-09-11 00:00:00,143095.16
2019-09-12 00:00:00,135451.20
2019-09-13 00:00:00,143132.55
2019-09-14 00:00:00,136479.22
2019-09-15 00:00:00,139410.96
2019-09-16 00:00:00,147637.87
2019-09-17 00:00:00,129209.73
2019-09-18 00:00:00,128819.68
2019-09-19 00:00:00,140520.70
2019-09-20 00:00:00,156123.32
2019-09-21 00:00:00,129561.02
2019-09-22 00:00:00,145221.73
2019-09-23 00:00:00,156115.69
2019-09-24 00:00:00,144252.29
2019-09-25 00:00:00,140814.88
2019-09-26 00:00:00,140010.87
2019-09-27 00:00:00,135060.82
2019-09-28 00:00:00,137377.02
2019-09-29 00:00:00,138741.01
2019-09-30 00:00:00,150900.47
2019-10-01 00:00:00,151683.60
2019-10-02 00:00:00,146575.89
2019-10-03 00:00:00,148901.83
2019-10-04 00:00:00,141558.26
2019-10-05 00:00:00,134999.80
2019-10-06 00:00:00,136914.53
2019-10-07 00:00:00,148394.86
2019-10-08 00:00:00,139754.33
2019-10-09 00:00:00,138595.54
2019-10-10 00:00:00,150525.56
2019-10-11 00:00:00,137002.87
2019-10-12 00:00:00,124414.45
2019-10-13 00:00:00,138128.76
2019-10-14 00:00:00,159721.15
2019-10-15 00:00:00,144692.64
2019-10-16 00:00:00,138254.60
2019-10-17 00:00:00,136314.87
2019-10-18 00:00:00,144064.27
2019-10-19 00:00:00,139678.82
2019-10-20 00:00:00,157282.90
2019-10-21 00:00:00,147026.10
2019-10-22 00:00:00,148108.11
2019-10-23 00:00:00,150747.19
2019-10-24 00:00:00,139511.04
2019-10-25 00:00:00,139712.34
2019-10-26 00:00:00,143735.18
2019-10-27 00:00:00,147064.76
2019-10-28 00:00:00,142703.95
2019-10-29 00:00:00,136893.16
2019-10-30 00:00:00,140533.82
2019-10-31 00:00:00,133681.51
2019-11-01 00:00:00,141999.48
2019-11-02 00:00:00,144922.83
2019-11-03 00:00:00,164828.26
2019-11-04 00:00:00,151939.97
2019-11-05 00:00:00,143265.25
2019-11-06 00:00:00,144301.38
2019-11-07 00:00:00,135655.25
2019-11-08 00:00:00,135014.48
2019-11-09 00:00:00,152616.48
2019-11-10 00:00:00,143429.26
2019-11-11 00:00:00,130836.74
2019-11-12 00:00:00,145289.01
2019-11-13 00:00:00,138046.71
2019-11-14 00:00:00,129115.54
2019-11-15 00:00:00,136697.47
2019-11-16 00:00:00,133202.79
2019-11-17 00:00:00,140939.65
2019-11-18 00:00:00,148199.45
2019-11-19 00:00:00,150846.39
2019-11-20 00:00:00,133685.35
2019-11-21 00:00:00,140621.32
2019-11-22 00:00:00,147024.23
2019-11-23 00:00:00,134822.58
2019-11-24 00:00:00,140542.96
2019-11-25 00:00:00,143412.12
2019-11-26 00:00:00,131648.08
2019-11-27 00:00:00,141483.34
2019-11-28 00:00:00,125956.36
2019-11-29 00:00:00,159273.05
2019-11-30 00:00:00,152038.81
2019-12-01 00:00:00,166679.12
2019-12-02 00:00:00,155950.28
2019-12-03 00:00:00,148904.76
2019-12-04 00:00:00,147836.09
2019-12-05 00:00:00,138324.95
2019-12-06 00:00:00,137965.55
2019-12-07 00:00:00,139846.27
2019-12-08 00:00:00,140975.55
2019-12-09 00:00:00,159612.48
2019-12-10 00:00:00,144990.60
2019-12-11 00:00:00,131315.64
2019-12-12 00:00:00,137625.19
2019-12-13 00:00:00,140171.49
2019-12-14 00:00:00,139018.67
2019-12-15 00:00:00,147842.21
2019-12-16 00:00:00,147744.29
2019-12-17 00:00:00,121602.20
2019-12-18 00:00:00,140537.98
2019-12-19 00:00:00,137202.51
2019-12-20 00:00:00,130088.10
2019-12-21 00:00:00,139428.04
2019-12-22 00:00:00,152147.38
2019-12-23 00:00:00,131579.24
2019-12-24 00:00:00,116877.17
2019-12-25 00:00:00,119441.46
2019-12-26 00:00:00,141745.80
2019-12-27 00:00:00,160265.61
2019-12-28 00:00:00,144215.16
2019-12-29 00:00:00,159865.42
2019-12-30 00:00:00,153740.84
2019-12-31 00:00:00,141544.49
2020-01-01 00:00:00,157292.70
2020-01-02 00:00:00,165793.30
2020-01-03 00:00:00,154626.55
2020-01-04 00:00:00,150515.86
2020-01-05 00:00:00,157842.10
2020-01-06 00:00:00,156527.68
2020-01-07 00:00:00,155938.29
2020-01-08 00:00:00,147046.80
2020-01-09 00:00:00,142927.78
2020-01-10 00:00:00,140128.52
2020-01-11 00:00:00,141617.48
2020-01-12 00:00:00,144562.23
2020-01-13 00:00:00,137249.79
2020-01-14 00:00:00,145543.00
2020-01-15 00:00:00,145529.11
2020-01-16 00:00:00,143717.12
2020-01-17 00:00:00,146380.32
2020-01-18 00:00:00,144172.84
2020-01-19 00:00:00,149928.03
2020-01-20 00:00:00,159466.14
2020-01-21 00:00:00,142917.09
2020-01-22 00:00:00,138477.30
2020-01-23 00:00:00,132105.41
2020-01-24 00:00:00,140790.48
2020-01-25 00:00:00,146298.97
2020-01-26 00:00:00,144691.75
2020-01-27 00:00:00,127261.21
2020-01-28 00:00:00,136396.86
2020-01-29 00:00:00,149700.67
2020-01-30 00:00:00,135525.36
2020-01-31 00:00:00,157061.21
2020-02-01 00:00:00,151967.26
2020-02-02 00:00:00,150562.60
2020-02-03 00:00:00,152706.51
2020-02-04 00:00:00,143797.64
2020-02-05 00:00:00,149128.95
2020-02-06 00:00:00,134226.05
2020-02-07 00:00:00,146054.19
2020-02-08 00:00:00,146958.01
2020-02-09 00:00:00,148921.88
2020-02-10 00:00:00,144446.49
2020-02-11 00:00:00,136926.67
2020-02-12 00:00:00,153167.38
2020-02-13 00:00:00,151765.16
2020-02-14 00:00:00,169134.71
2020-02-15 00:00:00,181547.95
2020-02-16 00:00:00,147399.20
2020-02-17 00:00:00,141286.05
2020-02-18 00:00:00,132446.69
2020-02-19 00:00:00,139373.80
2020-02-20 00:00:00,142856.19
2020-02-21 00:00:00,141055.50
2020-02-22 00:00:00,127724.49
2020-02-23 00:00:00,137460.17
2020-02-24 00:00:00,141980.49
2020-02-25 00:00:00,135711.99
2020-02-26 00:00:00,126896.99
2020-02-27 00:00:00,147770.35
2020-02-28 00:00:00,144192.98
2020-02-29 00:00:00,144158.81
2020-03-01 00:00:00,144181.18
2020-03-02 00:00:00,150934.36
2020-03-03 00:00:00,129093.07
2020-03-04 00:00:00,136636.45
2020-03-05 00:00:00,126948.30
2020-03-06 00:00:00,135604.30
2020-03-07 00:00:00,137761.43
2020-03-08 00:00:00,139867.65
2020-03-09 00:00:00,138025.31
2020-03-10 00:00:00,136807.77
2020-03-11 00:00:00,128106.40
2020-03-12 00:00:00,110259.62
2020-03-13 00:00:00,118445.69
2020-03-14 00:00:00,133905.28
2020-03-15 00:00:00,129793.05
2020-03-16 00:00:00,129024.41
2020-03-17 00:00:00,129949.43
2020-03-18 00:00:00,137246.17
2020-03-19 00:00:00,133828.34
2020-03-20 00:00:00,118302.02
2020-03-21 00:00:00,124135.60
2020-03-22 00:00:00,118043.72
2020-03-23 00:00:00,102225.39
2020-03-24 00:00:00,103226.63
2020-03-25 00:00:00,105493.99
2020-03-26 00:00:00,113460.60
2020-03-27 00:00:00,106178.18
2020-03-28 00:00:00,115541.56
2020-03-29 00:00:00,129085.11
2020-03-30 00:00:00,120174.96
2020-03-31 00:00:00,124090.72
2020-04-01 00:00:00,121018.92
2020-04-02 00:00:00,113891.86
2020-04-03 00:00:00,121175.65
2020-04-04 00:00:00,120739.98
2020-04-05 00:00:00,117390.79
2020-04-06 00:00:00,106208.35
2020-04-07 00:00:00,111565.59
2020-04-08 00:00:00,118285.29
2020-04-09 00:00:00,116452.98
2020-04-10 00:00:00,122259.51
2020-04-11 00:00:00,116495.84
2020-04-12 00:00:00,117472.95
2020-04-13 00:00:00,120661.63
2020-04-14 00:00:00,118915.65
2020-04-15 00:00:00,135824.29
2020-04-16 00:00:00,127237.60
2020-04-17 00:00:00,128636.61
2020-04-18 00:00:00,125491.50
2020-04-19 00:00:00,131248.91
2020-04-20 00:00:00,124754.60
2020-04-21 00:00:00,129846.16
2020-04-22 00:00:00,131894.41
2020-04-23 00:00:00,120870.81
2020-04-24 00:00:00,116779.34
2020-04-25 00:00:00,125193.00
2020-04-26 00:00:00,127430.96
2020-04-27 00:00:00,130487.74
2020-04-28 00:00:00,119930.15
2020-04-29 00:00:00,121965.66
2020-04-30 00:00:00,131410.08
2020-05-01 00:00:00,125570.75
2020-05-02 00:00:00,133010.36
2020-05-03 00:00:00,129049.89
2020-05-04 00:00:00,136660.13
2020-05-05 00:00:00,128558.61
2020-05-06 00:00:00,127192.20
2020-05-07 00:00:00,120878.75
2020-05-08 00:00:00,130567.08
2020-05-09 00:00:00,130138.00
2020-05-10 00:00:00,127991.94
2020-05-11 00:00:00,126566.96
2020-05-12 00:00:00,128596.74
2020-05-13 00:00:00,111522.74
2020-05-14 00:00:00,119764.87
2020-05-15 00:00:00,138176.92
2020-05-16 00:00:00,132062.73
2020-05-17 00:00:00,137553.28
2020-05-18 00:00:00,133558.93
2020-05-19 00:00:00,134861.94
2020-05-20 00:00:00,140704.02
2020-05-21 00:00:00,132937.46
2020-05-22 00:00:00,131654.59
2020-05-23 00:00:00,130620.62
2020-05-24 00:00:00,136118.91
2020-05-25 00:00:00,135986.20
2020-05-26 00:00:00,129069.13
2020-05-27 00:00:00,137581.18
2020-05-28 00:00:00,134614.42
2020-05-29 00:00:00,142567.48
2020-05-30 00:00:00,132175.54
2020-05-31 00:00:00,145279.11
2020-06-01 00:00:00,142151.35
2020-06-02 00:00:00,134222.76
2020-06-03 00:00:00,142385.42
2020-06-04 00:00:00,137440.28
2020-06-05 00:00:00,148849.74
2020-06-06 00:00:00,140989.36
2020-06-07 00:00:00,140669.08
2020-06-08 00:00:00,154203.81
2020-06-09 00:00:00,146511.67
2020-06-10 00:00:00,131460.70
2020-06-11 00:00:00,131918.73
2020-06-12 00:00:00,128311.63
2020-06-13 00:00:00,133976.89
2020-06-14 00:00:00,154055.58
2020-06-15 00:00:00,147458.53
2020-06-16 00:00:00,149528.60
2020-06-17 00:00:00,136423.82
2020-06-18 00:00:00,191071.68
2020-06-19 00:00:00,172455.98
2020-06-20 00:00:00,191330.72
2020-06-21 00:00:00,209124.85
2020-06-22 00:00:00,134857.35
2020-06-23 00:00:00,131550.15
2020-06-24 00:00:00,125996.45
2020-06-25 00:00:00,126151.12
2020-06-26 00:00:00,135991.88
2020-06-27 00:00:00,133849.24
2020-06-28 00:00:00,135397.14
2020-06-29 00:00:00,150354.04
2020-06-30 00:00:00,135270.72
2020-07-01 00:00:00,135926.88
2020-07-02 00:00:00,131380.44
2020-07-03 00:00:00,129805.67
2020-07-04 00:00:00,126613.59
2020-07-05 00:00:00,140080.08
2020-07-06 00:00:00,110921.58
2020-07-07 00:00:00,137774.82
2020-07-08 00:00:00,133514.54
2020-07-09 00:00:00,142230.89
2020-07-10 00:00:00,137110.68
2020-07-11 00:00:00,126931.21
2020-07-12 00:00:00,132324.34
2020-07-13 00:00:00,136113.53
2020-07-14 00:00:00,141037.64
2020-07-15 00:00:00,140034.87
2020-07-16 00:00:00,149101.82
2020-07-17 00:00:00,138997.06
2020-07-18 00:00:00,146837.33
2020-07-19 00:00:00,145113.15
2020-07-20 00:00:00,165412.00
2020-07-21 00:00:00,153637.94
2020-07-22 00:00:00,137985.17
2020-07-23 00:00:00,132754.59
2020-07-24 00:00:00,144921.20
2020-07-25 00:00:00,135890.07
2020-07-26 00:00:00,142913.28
2020-07-27 00:00:00,150070.58
2020-07-28 00:00:00,135708.30
2020-07-29 00:00:00,150875.92
2020-07-30 00:00:00,139543.84
2020-07-31 00:00:00,141950.33
2020-08-01 00:00:00,144971.66
2020-08-02 00:00:00,149648.15
2020-08-03 00:00:00,144202.35
2020-08-04 00:00:00,150604.53
2020-08-05 00:00:00,140416.57
2020-08-06 00:00:00,140114.49
2020-08-07 00:00:00,145152.88
2020-08-08 00:00:00,144471.42
2020-08-09 00:00:00,143356.60
2020-08-10 00:00:00,151699.04
2020-08-11 00:00:00,142274.63
2020-08-12 00:00:00,141622.79
2020-08-13 00:00:00,152649.16
2020-08-14 00:00:00,153476.64
2020-08-15 00:00:00,157080.94
2020-08-16 00:00:00,156655.21
2020-08-17 00:00:00,161451.97
2020-08-18 00:00:00,151415.02
2020-08-19 00:00:00,158551.03
2020-08-20 00:00:00,154972.13
2020-08-21 00:00:00,156543.75
2020-08-22 00:00:00,147903.40
2020-08-23 00:00:00,149612.34
2020-08-24 00:00:00,168841.61
2020-08-25 00:00:00,151910.40
2020-08-26 00:00:00,161131.22
2020-08-27 00:00:00,157032.44
2020-08-28 00:00:00,153464.65
2020-08-29 00:00:00,149527.36
2020-08-30 00:00:00,147181.24
2020-08-31 00:00:00,166767.63
2020-09-01 00:00:00,155175.50
2020-09-02 00:00:00,147453.28
2020-09-03 00:00:00,151626.24
2020-09-04 00:00:00,154795.61
2020-09-05 00:00:00,149696.08
2020-09-06 00:00:00,153220.98
2020-09-07 00:00:00,199799.76
2020-09-08 00:00:00,180397.67
2020-09-09 00:00:00,168184.71
2020-09-10 00:00:00,173293.20
2020-09-11 00:00:00,187936.59
2020-09-12 00:00:00,149904.40
2020-09-13 00:00:00,146757.44
2020-09-14 00:00:00,160421.09
2020-09-15 00:00:00,155091.13
2020-09-16 00:00:00,154675.68
2020-09-17 00:00:00,142525.78
2020-09-18 00:00:00,153574.30
2020-09-19 00:00:00,147391.56
2020-09-20 00:00:00,151978.26
2020-09-21 00:00:00,157479.86
2020-09-22 00:00:00,153183.34
2020-09-23 00:00:00,155732.74
2020-09-24 00:00:00,149599.57
2020-09-25 00:00:00,154234.02
2020-09-26 00:00:00,151443.03
2020-09-27 00:00:00,152003.91
2020-09-28 00:00:00,157803.92
2020-09-29 00:00:00,153798.09
2020-09-30 00:00:00,157248.95
2020-10-01 00:00:00,158859.86
2020-10-02 00:00:00,154073.57
2020-10-03 00:00:00,161943.77
2020-10-04 00:00:00,159935.77
2020-10-05 00:00:00,162467.77
2020-10-06 00:00:00,167257.56
2020-10-07 00:00:00,170768.72
2020-10-08 00:00:00,160018.10
2020-10-09 00:00:00,163546.26
2020-10-10 00:00:00,157941.49
2020-10-11 00:00:00,165922.18
2020-10-12 00:00:00,163416.35
2020-10-13 00:00:00,154651.74
2020-10-14 00:00:00,162035.58
2020-10-15 00:00:00,156313.74
2020-10-16 00:00:00,157577.25
2020-10-17 00:00:00,149248.96
2020-10-18 00:00:00,163235.79
2020-10-19 00:00:00,164918.76
2020-10-20 00:00:00,154263.14
2020-10-21 00:00:00,151729.03
2020-10-22 00:00:00,158165.03
2020-10-23 00:00:00,155623.89
2020-10-24 00:00:00,160788.63
2020-10-25 00:00:00,149937.20
2020-10-26 00:00:00,159466.44
2020-10-27 00:00:00,164855.47
2020-10-28 00:00:00,154645.95
2020-10-29 00:00:00,146433.27
2020-10-30 00:00:00,157514.24
2020-10-31 00:00:00,146434.88
2020-11-01 00:00:00,152873.56
2020-11-02 00:00:00,168428.32
2020-11-03 00:00:00,150398.01
2020-11-04 00:00:00,143022.70
2020-11-05 00:00:00,145211.84
2020-11-06 00:00:00,161768.87
2020-11-07 00:00:00,160256.90
2020-11-08 00:00:00,165316.05
2020-11-09 00:00:00,159188.71
2020-11-10 00:00:00,154861.85
2020-11-11 00:00:00,159073.14
2020-11-12 00:00:00,151490.36
2020-11-13 00:00:00,167300.93
2020-11-14 00:00:00,156570.07
2020-11-15 00:00:00,151177.64
2020-11-16 00:00:00,156847.22
2020-11-17 00:00:00,151039.36
2020-11-18 00:00:00,160007.63
2020-11-19 00:00:00,154178.60
2020-11-20 00:00:00,154972.14
2020-11-21 00:00:00,161189.12
2020-11-22 00:00:00,154632.68
2020-11-23 00:00:00,162162.15
2020-11-24 00:00:00,156038.43
2020-11-25 00:00:00,190686.29
2020-11-26 00:00:00,164248.81
2020-11-27 00:00:00,192235.53
2020-11-28 00:00:00,180338.57
2020-11-29 00:00:00,199982.49
2020-11-30 00:00:00,239576.38
2020-12-01 00:00:00,154192.63
2020-12-02 00:00:00,154065.76
2020-12-03 00:00:00,149764.53
2020-12-04 00:00:00,146139.10
2020-12-05 00:00:00,147566.20
2020-12-06 00:00:00,157781.98
2020-12-07 00:00:00,162421.87
2020-12-08 00:00:00,152486.73
2020-12-09 00:00:00,158988.51
2020-12-10 00:00:00,160491.62
2020-12-11 00:00:00,145929.86
2020-12-12 00:00:00,156603.20
2020-12-13 00:00:00,159763.78
2020-12-14 00:00:00,157365.74
2020-12-15 00:00:00,155056.99
2020-12-16 00:00:00,152872.87
2020-12-17 00:00:00,149222.40
2020-12-18 00:00:00,158708.29
2020-12-19 00:00:00,160078.47
2020-12-20 00:00:00,152292.47
2020-12-21 00:00:00,162172.87
2020-12-22 00:00:00,167382.94
2020-12-23 00:00:00,169454.53
2020-12-24 00:00:00,146557.18
2020-12-25 00:00:00,145647.92
2020-12-26 00:00:00,174775.28
2020-12-27 00:00:00,186424.37
2020-12-28 00:00:00,192189.93
2020-12-29 00:00:00,191795.79
2020-12-30 00:00:00,194924.65
2020-12-31 00:00:00,208098.83
2021-01-01 00:00:00,162758.10
2021-01-02 00:00:00,160772.99
2021-01-03 00:00:00,164958.58
2021-01-04 00:00:00,184017.48
2021-01-05 00:00:00,166454.77
2021-01-06 00:00:00,156826.14
2021-01-07 00:00:00,152714.39
2021-01-08 00:00:00,164856.57
2021-01-09 00:00:00,149550.84
2021-01-10 00:00:00,164484.77
2021-01-11 00:00:00,168373.63
2021-01-12 00:00:00,163452.99
2021-01-13 00:00:00,165217.22
2021-01-14 00:00:00,171752.38
2021-01-15 00:00:00,190786.70
2021-01-16 00:00:00,153923.85
2021-01-17 00:00:00,161736.80
2021-01-18 00:00:00,155547.56
2021-01-19 00:00:00,169320.71
2021-01-20 00:00:00,163045.25
2021-01-21 00:00:00,164333.17
2021-01-22 00:00:00,164327.10
2021-01-23 00:00:00,163372.30
2021-01-24 00:00:00,167395.63
2021-01-25 00:00:00,180220.18
2021-01-26 00:00:00,168443.29
2021-01-27 00:00:00,160129.14
2021-01-28 00:00:00,166668.86
2021-01-29 00:00:00,172019.69
2021-01-30 00:00:00,161343.84
2021-01-31 00:00:00,174076.90
2021-02-01 00:00:00,172639.80
2021-02-02 00:00:00,159884.50
2021-02-03 00:00:00,164652.30
2021-02-04 00:00:00,155592.19
2021-02-05 00:00:00,162173.83
2021-02-06 00:00:00,166840.02
2021-02-07 00:00:00,162012.06
2021-02-08 00:00:00,215511.69
2021-02-09 00:00:00,198641.36
2021-02-10 00:00:00,176088.28
2021-02-11 00:00:00,171264.15
2021-02-12 00:00:00,188643.93
2021-02-13 00:00:00,197163.48
2021-02-14 00:00:00,227843.12
2021-02-15 00:00:00,222426.34
2021-02-16 00:00:00,157357.58
2021-02-17 00:00:00,160634.80
2021-02-18 00:00:00,164001.20
2021-02-19 00:00:00,161772.51
2021-02-20 00:00:00,161862.91
2021-02-21 00:00:00,153949.51
2021-02-22 00:00:00,166277.02
2021-02-23 00:00:00,169493.03
2021-02-24 00:00:00,167865.31
2021-02-25 00:00:00,171025.19
2021-02-26 00:00:00,170374.16
2021-02-27 00:00:00,175540.58
2021-02-28 00:00:00,190476.04
2021-03-01 00:00:00,176680.80
2021-03-02 00:00:00,186122.39
2021-03-03 00:00:00,175955.37
2021-03-04 00:00:00,176135.34
2021-03-05 00:00:00,175979.19
2021-03-06 00:00:00,172037.98
2021-03-07 00:00:00,171534.60
2021-03-08 00:00:00,182967.61
2021-03-09 00:00:00,172953.27
2021-03-10 00:00:00,186315.01
2021-03-11 00:00:00,188468.50
2021-03-12 00:00:00,195240.79
2021-03-13 00:00:00,196802.23
2021-03-14 00:00:00,184984.28
2021-03-15 00:00:00,212226.29
2021-03-16 00:00:00,208966.74
2021-03-17 00:00:00,218105.38
2021-03-18 00:00:00,168616.62
2021-03-19 00:00:00,170536.27
2021-03-20 00:00:00,165386.43
2021-03-21 00:00:00,167919.20
2021-03-22 00:00:00,177498.39
2021-03-23 00:00:00,174528.48
2021-03-24 00:00:00,160575.46
2021-03-25 00:00:00,165350.97
2021-03-26 00:00:00,165698.05
2021-03-27 00:00:00,173600.81
2021-03-28 00:00:00,178730.07
2021-03-29 00:00:00,175884.97
2021-03-30 00:00:00,171572.81
2021-03-31 00:00:00,186188.21
2021-04-01 00:00:00,188739.65
2021-04-02 00:00:00,176940.70
2021-04-03 00:00:00,173837.03
2021-04-04 00:00:00,165210.93
2021-04-05 00:00:00,191240.35
2021-04-06 00:00:00,172907.95
2021-04-07 00:00:00,174498.48
2021-04-08 00:00:00,175141.60
2021-04-09 00:00:00,164947.92
2021-04-10 00:00:00,177560.00
2021-04-11 00:00:00,184400.19
2021-04-12 00:00:00,193633.67
2021-04-13 00:00:00,177196.97
2021-04-14 00:00:00,194131.63
2021-04-15 00:00:00,191982.07
2021-04-16 00:00:00,197938.65
2021-04-17 00:00:00,177294.31
2021-04-18 00:00:00,180981.81
2021-04-19 00:00:00,189084.19
2021-04-20 00:00:00,171931.22
2021-04-21 00:00:00,177053.83
2021-04-22 00:00:00,177142.14
2021-04-23 00:00:00,175684.05
2021-04-24 00:00:00,174768.56
2021-04-25 00:00:00,179555.91
2021-04-26 00:00:00,181223.65
2021-04-27 00:00:00,179515.70
2021-04-28 00:00:00,190310.98
2021-04-29 00:00:00,187813.80
2021-04-30 00:00:00,187536.85
2021-05-01 00:00:00,192101.04
2021-05-02 00:00:00,181993.09
2021-05-03 00:00:00,196070.01
2021-05-04 00:00:00,185571.89
2021-05-05 00:00:00,185618.23
2021-05-06 00:00:00,181771.58
2021-05-07 00:00:00,190621.46
2021-05-08 00:00:00,178584.22
2021-05-09 00:00:00,182429.30
2021-05-10 00:00:00,203502.25
2021-05-11 00:00:00,191445.94
2021-05-12 00:00:00,190431.00
2021-05-13 00:00:00,188259.95
2021-05-14 00:00:00,196291.18
2021-05-15 00:00:00,201223.28
2021-05-16 00:00:00,196071.12
2021-05-17 00:00:00,209114.49
2021-05-18 00:00:00,196337.09
2021-05-19 00:00:00,188800.25
2021-05-20 00:00:00,189424.26
2021-05-21 00:00:00,185983.34
2021-05-22 00:00:00,192435.04
2021-05-23 00:00:00,189730.65
2021-05-24 00:00:00,195878.74
2021-05-25 00:00:00,198119.57
2021-05-26 00:00:00,189928.85
2021-05-27 00:00:00,231227.46
2021-05-28 00:00:00,235600.96
2021-05-29 00:00:00,219122.38
2021-05-30 00:00:00,229610.56
2021-05-31 00:00:00,293059.63
2021-06-01 00:00:00,242127.35
2021-06-02 00:00:00,198820.39
2021-06-03 00:00:00,190661.86
2021-06-04 00:00:00,184730.93
2021-06-05 00:00:00,169804.03
2021-06-06 00:00:00,182062.55
2021-06-07 00:00:00,206022.47
2021-06-08 00:00:00,180429.35
2021-06-09 00:00:00,188556.42
2021-06-10 00:00:00,173259.87
2021-06-11 00:00:00,188847.97
2021-06-12 00:00:00,178750.75
2021-06-13 00:00:00,185844.20
2021-06-14 00:00:00,201726.27
2021-06-15 00:00:00,199203.99
2021-06-16 00:00:00,184739.32
2021-06-17 00:00:00,182101.00
2021-06-18 00:00:00,190428.45
2021-06-19 00:00:00,182220.43
2021-06-20 00:00:00,188239.04
2021-06-21 00:00:00,202710.19
2021-06-22 00:00:00,189814.78
2021-06-23 00:00:00,182954.41
2021-06-24 00:00:00,180629.01
2021-06-25 00:00:00,202848.09
2021-06-26 00:00:00,201852.14
2021-06-27 00:00:00,206913.77
2021-06-28 00:00:00,219941.31
2021-06-29 00:00:00,221287.60
2021-06-30 00:00:00,218063.70
2021-07-01 00:00:00,262691.92
2021-07-02 00:00:00,225925.40
2021-07-03 00:00:00,210679.58
2021-07-04 00:00:00,215453.68
2021-07-05 00:00:00,256806.63
2021-07-06 00:00:00,229612.50
2021-07-07 00:00:00,189797.25
2021-07-08 00:00:00,182130.18
2021-07-09 00:00:00,195416.55
2021-07-10 00:00:00,177416.14
2021-07-11 00:00:00,204261.27
2021-07-12 00:00:00,205035.90
2021-07-13 00:00:00,197055.59
2021-07-14 00:00:00,210926.42
2021-07-15 00:00:00,196133.51
2021-07-16 00:00:00,192080.28
2021-07-17 00:00:00,189828.44
2021-07-18 00:00:00,185601.04
2021-07-19 00:00:00,192708.05
2021-07-20 00:00:00,200952.45
2021-07-21 00:00:00,189848.78
2021-07-22 00:00:00,191195.80
2021-07-23 00:00:00,188232.37
2021-07-24 00:00:00,196267.10
2021-07-25 00:00:00,204400.10
2021-07-26 00:00:00,201875.87
2021-07-27 00:00:00,222827.21
2021-07-28 00:00:00,215983.51
2021-07-29 00:00:00,205616.94
2021-07-30 00:00:00,210313.38
2021-07-31 00:00:00,208464.43
2021-08-01 00:00:00,204431.04
2021-08-02 00:00:00,211669.84
2021-08-03 00:00:00,219448.73
2021-08-04 00:00:00,209556.01
2021-08-05 00:00:00,213423.21
2021-08-06 00:00:00,210639.64
2021-08-07 00:00:00,199132.10
2021-08-08 00:00:00,207856.85
2021-08-09 00:00:00,221232.28
2021-08-10 00:00:00,212282.68
2021-08-11 00:00:00,193741.08
2021-08-12 00:00:00,211343.42
2021-08-13 00:00:00,222640.33
2021-08-14 00:00:00,202972.36
2021-08-15 00:00:00,219855.47
2021-08-16 00:00:00,217730.36
2021-08-17 00:00:00,199221.60
2021-08-18 00:00:00,208782.82
2021-08-19 00:00:00,198479.69
2021-08-20 00:00:00,204006.79
2021-08-21 00:00:00,193215.93
2021-08-22 00:00:00,208900.23
2021-08-23 00:00:00,218816.53
2021-08-24 00:00:00,210818.54
2021-08-25 00:00:00,209882.49
2021-08-26 00:00:00,219602.07
2021-08-27 00:00:00,207388.85
2021-08-28 00:00:00,209768.47
2021-08-29 00:00:00,228049.96
2021-08-30 00:00:00,239884.86
2021-08-31 00:00:00,219061.93
2021-09-01 00:00:00,213267.68
2021-09-02 00:00:00,270748.49
2021-09-03 00:00:00,249561.11
2021-09-04 00:00:00,221751.63
2021-09-05 00:00:00,231281.05
2021-09-06 00:00:00,269252.87
2021-09-07 00:00:00,234144.63
2021-09-08 00:00:00,225799.77
2021-09-09 00:00:00,201208.83
2021-09-10 00:00:00,194631.39
2021-09-11 00:00:00,195387.04
2021-09-12 00:00:00,205964.95
2021-09-13 00:00:00,205656.74
2021-09-14 00:00:00,210466.26
2021-09-15 00:00:00,198073.59
2021-09-16 00:00:00,204478.94
2021-09-17 00:00:00,199396.12
2021-09-18 00:00:00,197960.22
2021-09-19 00:00:00,196642.34
2021-09-20 00:00:00,206682.34
2021-09-21 00:00:00,196210.43
2021-09-22 00:00:00,200320.94
2021-09-23 00:00:00,209102.74
2021-09-24 00:00:00,199287.32
2021-09-25 00:00:00,210054.87
2021-09-26 00:00:00,209060.12
2021-09-27 00:00:00,224749.55
2021-09-28 00:00:00,209812.82
2021-09-29 00:00:00,201639.30
2021-09-30 00:00:00,218502.88
2021-10-01 00:00:00,200940.30
2021-10-02 00:00:00,213350.93
2021-10-03 00:00:00,228882.62
2021-10-04 00:00:00,235185.25
2021-10-05 00:00:00,219176.04
2021-10-06 00:00:00,204348.79
2021-10-07 00:00:00,210848.67
2021-10-08 00:00:00,207045.81
2021-10-09 00:00:00,208238.20
2021-10-10 00:00:00,206290.01
2021-10-11 00:00:00,216233.76
2021-10-12 00:00:00,230884.06
2021-10-13 00:00:00,209604.05
2021-10-14 00:00:00,207100.29
2021-10-15 00:00:00,212613.69
2021-10-16 00:00:00,198566.36
2021-10-17 00:00:00,214020.35
2021-10-18 00:00:00,208486.25
2021-10-19 00:00:00,202890.37
2021-10-20 00:00:00,211774.22
2021-10-21 00:00:00,199105.68
2021-10-22 00:00:00,214497.74
2021-10-23 00:00:00,209865.02
2021-10-24 00:00:00,211170.25
2021-10-25 00:00:00,222858.17
2021-10-26 00:00:00,213376.26
2021-10-27 00:00:00,211805.78
2021-10-28 00:00:00,217802.84
2021-10-29 00:00:00,213383.47
2021-10-30 00:00:00,208730.95
2021-10-31 00:00:00,205271.33
2021-11-01 00:00:00,228962.78
2021-11-02 00:00:00,217360.87
2021-11-03 00:00:00,205186.00
2021-11-04 00:00:00,215238.67
2021-11-05 00:00:00,204744.37
2021-11-06 00:00:00,211048.75
2021-11-07 00:00:00,216469.80
2021-11-08 00:00:00,213269.09
2021-11-09 00:00:00,212264.19
2021-11-10 00:00:00,215331.67
2021-11-11 00:00:00,222841.26
2021-11-12 00:00:00,212412.53
2021-11-13 00:00:00,213298.44
2021-11-14 00:00:00,211549.34
2021-11-15 00:00:00,222890.93
2021-11-16 00:00:00,207200.34
2021-11-17 00:00:00,212032.09
2021-11-18 00:00:00,206382.10
2021-11-19 00:00:00,216513.92
2021-11-20 00:00:00,194060.67
2021-11-21 00:00:00,218104.40
2021-11-22 00:00:00,213901.85
2021-11-23 00:00:00,193250.99
2021-11-24 00:00:00,275683.15
2021-11-25 00:00:00,231404.21
2021-11-26 00:00:00,256357.86
2021-11-27 00:00:00,253295.05
2021-11-28 00:00:00,271522.69
2021-11-29 00:00:00,304174.88
2021-11-30 00:00:00,250829.24
2021-12-01 00:00:00,227821.42
2021-12-02 00:00:00,192206.73
2021-12-03 00:00:00,206086.30
2021-12-04 00:00:00,192213.46
2021-12-05 00:00:00,215099.80
2021-12-06 00:00:00,212666.39
2021-12-07 00:00:00,193408.55
2021-12-08 00:00:00,198906.65
2021-12-09 00:00:00,199032.32
2021-12-10 00:00:00,194585.71
2021-12-11 00:00:00,212179.90
2021-12-12 00:00:00,215279.24
2021-12-13 00:00:00,213916.43
2021-12-14 00:00:00,193670.64
2021-12-15 00:00:00,199746.11
2021-12-16 00:00:00,197998.22
2021-12-17 00:00:00,199845.70
2021-12-18 00:00:00,191624.60
2021-12-19 00:00:00,200791.22
2021-12-20 00:00:00,194365.80
2021-12-21 00:00:00,195146.63
2021-12-22 00:00:00,192729.15
2021-12-23 00:00:00,191451.76
2021-12-24 00:00:00,192661.86
2021-12-25 00:00:00,183951.66
2021-12-26 00:00:00,227872.43
2021-12-27 00:00:00,238780.56
2021-12-28 00:00:00,235439.43
2021-12-29 00:00:00,243493.08
2021-12-30 00:00:00,230011.17
2021-12-31 00:00:00,215417.85
2022-01-01 00:00:00,233864.06
2022-01-02 00:00:00,242762.83
2022-01-03 00:00:00,299141.71
2022-01-04 00:00:00,210810.84
2022-01-05 00:00:00,205634.86
2022-01-06 00:00:00,208612.05
2022-01-07 00:00:00,201909.20
2022-01-08 00:00:00,198338.61
2022-01-09 00:00:00,211838.25
2022-01-10 00:00:00,222502.08
2022-01-11 00:00:00,218730.07
2022-01-12 00:00:00,217858.83
2022-01-13 00:00:00,208598.72
2022-01-14 00:00:00,218694.21
2022-01-15 00:00:00,212697.05
2022-01-16 00:00:00,209588.86
2022-01-17 00:00:00,234972.38
2022-01-18 00:00:00,221552.45
2022-01-19 00:00:00,203149.04
2022-01-20 00:00:00,217726.71
2022-01-21 00:00:00,209608.86
2022-01-22 00:00:00,201495.40
2022-01-23 00:00:00,221697.08
2022-01-24 00:00:00,221752.77
2022-01-25 00:00:00,220109.04
2022-01-26 00:00:00,216842.33
2022-01-27 00:00:00,220001.01
2022-01-28 00:00:00,235939.32
2022-01-29 00:00:00,211999.73
2022-01-30 00:00:00,214785.00
2022-01-31 00:00:00,231395.93
2022-02-01 00:00:00,217321.18
2022-02-02 00:00:00,224261.24
2022-02-03 00:00:00,207416.00
2022-02-04 00:00:00,215036.85
2022-02-05 00:00:00,205634.00
2022-02-06 00:00:00,221524.11
2022-02-07 00:00:00,223199.03
2022-02-08 00:00:00,271345.24
2022-02-09 00:00:00,245261.66
2022-02-10 00:00:00,232619.09
2022-02-11 00:00:00,248655.80
2022-02-12 00:00:00,218264.48
2022-02-13 00:00:00,236224.47
2022-02-14 00:00:00,305855.27
2022-02-15 00:00:00,243775.17
2022-02-16 00:00:00,202670.35
2022-02-17 00:00:00,196484.10
2022-02-18 00:00:00,194434.87
2022-02-19 00:00:00,198877.36
2022-02-20 00:00:00,209454.37
2022-02-21 00:00:00,209647.98
2022-02-22 00:00:00,221702.73
2022-02-23 00:00:00,210787.89
2022-02-24 00:00:00,212706.02
2022-02-25 00:00:00,228239.60
2022-02-26 00:00:00,225248.29
2022-02-27 00:00:00,231692.48
2022-02-28 00:00:00,239529.63
2022-03-01 00:00:00,200701.20
2022-03-02 00:00:00,216395.56
2022-03-03 00:00:00,209538.91
2022-03-04 00:00:00,213982.89
2022-03-05 00:00:00,205962.22
2022-03-06 00:00:00,217438.63
2022-03-07 00:00:00,227010.62
2022-03-08 00:00:00,198805.28
2022-03-09 00:00:00,208694.16
2022-03-10 00:00:00,273058.09
2022-03-11 00:00:00,243271.26
2022-03-12 00:00:00,229518.10
2022-03-13 00:00:00,231554.32
2022-03-14 00:00:00,226885.23
2022-03-15 00:00:00,227544.24
2022-03-16 00:00:00,239922.02
2022-03-17 00:00:00,271339.46
2022-03-18 00:00:00,199713.86
2022-03-19 00:00:00,187049.94
2022-03-20 00:00:00,202233.20
2022-03-21 00:00:00,217674.46
2022-03-22 00:00:00,211940.55
2022-03-23 00:00:00,194324.96
2022-03-24 00:00:00,208517.20
2022-03-25 00:00:00,221879.79
2022-03-26 00:00:00,221699.06
2022-03-27 00:00:00,217446.53
2022-03-28 00:00:00,230028.38
2022-03-29 00:00:00,212370.42
2022-03-30 00:00:00,222050.81
2022-03-31 00:00:00,211617.08
2022-04-01 00:00:00,229842.58
2022-04-02 00:00:00,212420.98
2022-04-03 00:00:00,230196.88
2022-04-04 00:00:00,218293.24
2022-04-05 00:00:00,216843.89
2022-04-06 00:00:00,217379.37
2022-04-07 00:00:00,208062.94
2022-04-08 00:00:00,206831.77
2022-04-09 00:00:00,219224.56
2022-04-10 00:00:00,221478.09
2022-04-11 00:00:00,239131.82
2022-04-12 00:00:00,237172.83
2022-04-13 00:00:00,221009.77
2022-04-14 00:00:00,212905.91
2022-04-15 00:00:00,232061.60
2022-04-16 00:00:00,220373.55
2022-04-17 00:00:00,213137.71
2022-04-18 00:00:00,226682.42
2022-04-19 00:00:00,216162.03
2022-04-20 00:00:00,221106.12
2022-04-21 00:00:00,214870.84
2022-04-22 00:00:00,219267.61
2022-04-23 00:00:00,221788.76
2022-04-24 00:00:00,225395.05
2022-04-25 00:00:00,232577.33
2022-04-26 00:00:00,212290.13
2022-04-27 00:00:00,219116.02
2022-04-28 00:00:00,231716.79
2022-04-29 00:00:00,222470.83
2022-04-30 00:00:00,215529.41
2022-05-01 00:00:00,226243.42
2022-05-02 00:00:00,232764.61
2022-05-03 00:00:00,216213.19
2022-05-04 00:00:00,211421.70
2022-05-05 00:00:00,203163.89
2022-05-06 00:00:00,224416.61
2022-05-07 00:00:00,206986.19
2022-05-08 00:00:00,215422.71
2022-05-09 00:00:00,236810.15
2022-05-10 00:00:00,221734.10
2022-05-11 00:00:00,215376.71
2022-05-12 00:00:00,230037.27
2022-05-13 00:00:00,227751.66
2022-05-14 00:00:00,214119.30
2022-05-15 00:00:00,233076.20
2022-05-16 00:00:00,232747.45
2022-05-17 00:00:00,209889.61
2022-05-18 00:00:00,213963.39
2022-05-19 00:00:00,211022.08
2022-05-20 00:00:00,220061.50
2022-05-21 00:00:00,222761.56
2022-05-22 00:00:00,213464.31
2022-05-23 00:00:00,237054.88
2022-05-24 00:00:00,214762.10
2022-05-25 00:00:00,235547.06
2022-05-26 00:00:00,256710.11
2022-05-27 00:00:00,255201.23
2022-05-28 00:00:00,244776.22
2022-05-29 00:00:00,241473.03
2022-05-30 00:00:00,256607.43
2022-05-31 00:00:00,298817.36
2022-06-01 00:00:00,242396.29
2022-06-02 00:00:00,236950.35
2022-06-03 00:00:00,202004.52
2022-06-04 00:00:00,204822.35
2022-06-05 00:00:00,221458.67
2022-06-06 00:00:00,229428.65
2022-06-07 00:00:00,215550.15
2022-06-08 00:00:00,229854.66
2022-06-09 00:00:00,225183.43
2022-06-10 00:00:00,211159.58
2022-06-11 00:00:00,214401.07
2022-06-12 00:00:00,209316.66
2022-06-13 00:00:00,222108.60
2022-06-14 00:00:00,224399.98
2022-06-15 00:00:00,225650.25
2022-06-16 00:00:00,203734.48
2022-06-17 00:00:00,206817.66
2022-06-18 00:00:00,194683.07
2022-06-19 00:00:00,215127.59
2022-06-20 00:00:00,229435.15
2022-06-21 00:00:00,222339.39
2022-06-22 00:00:00,216922.57
2022-06-23 00:00:00,222276.21
2022-06-24 00:00:00,223929.97
2022-06-25 00:00:00,218011.94
2022-06-26 00:00:00,226080.85
2022-06-27 00:00:00,239986.61
2022-06-28 00:00:00,224968.20
2022-06-29 00:00:00,218389.47
2022-06-30 00:00:00,256850.31
2022-07-01 00:00:00,236213.85
2022-07-02 00:00:00,233094.38
2022-07-03 00:00:00,215829.47
2022-07-04 00:00:00,225160.51
2022-07-05 00:00:00,265810.55
2022-07-06 00:00:00,244004.48
2022-07-07 00:00:00,218339.71
2022-07-08 00:00:00,202240.37
2022-07-09 00:00:00,206646.30
2022-07-10 00:00:00,209206.52
2022-07-11 00:00:00,221304.17
2022-07-12 00:00:00,213073.31
2022-07-13 00:00:00,202034.83
2022-07-14 00:00:00,216071.14
2022-07-15 00:00:00,206629.73
2022-07-16 00:00:00,210639.56
2022-07-17 00:00:00,215306.81
2022-07-18 00:00:00,206602.89
2022-07-19 00:00:00,211628.82
2022-07-20 00:00:00,213314.40
2022-07-21 00:00:00,208851.46
2022-07-22 00:00:00,228617.49
2022-07-23 00:00:00,210940.33
2022-07-24 00:00:00,232443.75
2022-07-25 00:00:00,222768.09
2022-07-26 00:00:00,215808.91
2022-07-27 00:00:00,222844.28
2022-07-28 00:00:00,223870.89
2022-07-29 00:00:00,228891.74
2022-07-30 00:00:00,215156.08
2022-07-31 00:00:00,227018.69
2022-08-01 00:00:00,243277.51
2022-08-02 00:00:00,203013.80
2022-08-03 00:00:00,208796.64
2022-08-04 00:00:00,219562.64
2022-08-05 00:00:00,226053.92
2022-08-06 00:00:00,215519.66
2022-08-07 00:00:00,217264.30
2022-08-08 00:00:00,229180.80
2022-08-09 00:00:00,213256.46
2022-08-10 00:00:00,229767.75
2022-08-11 00:00:00,211753.27
2022-08-12 00:00:00,218320.41
2022-08-13 00:00:00,218499.89
2022-08-14 00:00:00,217923.60
2022-08-15 00:00:00,216802.95
2022-08-16 00:00:00,209285.53
2022-08-17 00:00:00,215008.54
2022-08-18 00:00:00,214667.54
2022-08-19 00:00:00,225147.94
2022-08-20 00:00:00,207552.97
2022-08-21 00:00:00,220730.41
2022-08-22 00:00:00,239204.39
2022-08-23 00:00:00,237220.81
2022-08-24 00:00:00,221417.88
2022-08-25 00:00:00,227747.55
2022-08-26 00:00:00,235055.85
2022-08-27 00:00:00,203404.38
2022-08-28 00:00:00,237483.93
2022-08-29 00:00:00,233772.66
2022-08-30 00:00:00,220978.73
2022-08-31 00:00:00,221881.05
2022-09-01 00:00:00,263634.01
2022-09-02 00:00:00,233904.37
2022-09-03 00:00:00,223958.12
2022-09-04 00:00:00,230370.04
2022-09-05 00:00:00,242642.49
2022-09-06 00:00:00,256864.19
2022-09-07 00:00:00,234079.45
2022-09-08 00:00:00,212963.10
2022-09-09 00:00:00,207386.98
2022-09-10 00:00:00,189304.62
2022-09-11 00:00:00,209881.68
2022-09-12 00:00:00,210107.50
2022-09-13 00:00:00,221581.12
2022-09-14 00:00:00,208818.82
2022-09-15 00:00:00,204603.30
2022-09-16 00:00:00,210206.18
2022-09-17 00:00:00,200824.61
2022-09-18 00:00:00,211349.27
2022-09-19 00:00:00,216291.90
2022-09-20 00:00:00,225336.64
2022-09-21 00:00:00,223574.58
2022-09-22 00:00:00,223962.44
2022-09-23 00:00:00,208300.20
2022-09-24 00:00:00,209789.88
2022-09-25 00:00:00,208429.90
2022-09-26 00:00:00,214710.24
2022-09-27 00:00:00,214764.34
2022-09-28 00:00:00,217492.87
2022-09-29 00:00:00,213839.15
2022-09-30 00:00:00,222268.02
2022-10-01 00:00:00,219933.40
2022-10-02 00:00:00,210750.97
2022-10-03 00:00:00,223255.64
2022-10-04 00:00:00,224062.95
2022-10-05 00:00:00,208530.73
2022-10-06 00:00:00,219258.33
2022-10-07 00:00:00,214853.71
2022-10-08 00:00:00,207309.54
2022-10-09 00:00:00,214619.38
2022-10-10 00:00:00,226028.26
2022-10-11 00:00:00,212181.45
2022-10-12 00:00:00,199918.89
2022-10-13 00:00:00,216236.78
2022-10-14 00:00:00,221973.25
2022-10-15 00:00:00,213133.40
2022-10-16 00:00:00,217691.86
2022-10-17 00:00:00,223907.48
2022-10-18 00:00:00,210662.74
2022-10-19 00:00:00,212540.03
2022-10-20 00:00:00,209789.28
2022-10-21 00:00:00,220031.68
2022-10-22 00:00:00,210381.98
2022-10-23 00:00:00,203023.33
2022-10-24 00:00:00,214505.25
2022-10-25 00:00:00,203072.55
2022-10-26 00:00:00,196899.03
2022-10-27 00:00:00,199621.46
2022-10-28 00:00:00,213350.59
2022-10-29 00:00:00,212585.84
2022-10-30 00:00:00,220984.92
2022-10-31 00:00:00,218309.01
2022-11-01 00:00:00,217104.35
2022-11-02 00:00:00,204252.91
2022-11-03 00:00:00,203008.80
2022-11-04 00:00:00,210058.64
2022-11-05 00:00:00,205563.86
2022-11-06 00:00:00,221385.42
2022-11-07 00:00:00,223558.88
2022-11-08 00:00:00,203823.32
2022-11-09 00:00:00,193563.88
2022-11-10 00:00:00,206115.63
2022-11-11 00:00:00,209401.06
2022-11-12 00:00:00,205168.78
2022-11-13 00:00:00,211721.34
2022-11-14 00:00:00,218744.73
2022-11-15 00:00:00,216903.05
2022-11-16 00:00:00,205957.30
2022-11-17 00:00:00,215329.27
2022-11-18 00:00:00,200158.55
2022-11-19 00:00:00,211196.80
2022-11-20 00:00:00,212776.71
2022-11-21 00:00:00,214627.55
2022-11-22 00:00:00,201411.68
2022-11-23 00:00:00,251427.95
2022-11-24 00:00:00,213615.40
2022-11-25 00:00:00,237315.16
2022-11-26 00:00:00,230421.29
2022-11-27 00:00:00,258113.50
2022-11-28 00:00:00,275323.75
2022-11-29 00:00:00,235125.57
2022-11-30 00:00:00,247230.80
2022-12-01 00:00:00,206873.21
2022-12-02 00:00:00,203193.42
2022-12-03 00:00:00,195063.97
2022-12-04 00:00:00,204721.81
2022-12-05 00:00:00,213647.79
2022-12-06 00:00:00,202401.84
2022-12-07 00:00:00,204253.41
2022-12-08 00:00:00,199066.59
2022-12-09 00:00:00,195569.78
2022-12-10 00:00:00,198426.11
2022-12-11 00:00:00,202228.81
2022-12-12 00:00:00,207748.96
2022-12-13 00:00:00,189622.88
2022-12-14 00:00:00,194692.33
2022-12-15 00:00:00,206946.59
2022-12-16 00:00:00,196687.16
2022-12-17 00:00:00,196395.73
2022-12-18 00:00:00,193649.93
2022-12-19 00:00:00,214311.47
2022-12-20 00:00:00,199322.89
2022-12-21 00:00:00,205687.46
2022-12-22 00:00:00,197772.00
2022-12-23 00:00:00,199701.19
2022-12-24 00:00:00,174397.87
2022-12-25 00:00:00,182399.73
2022-12-26 00:00:00,224263.91
2022-12-27 00:00:00,233830.02
2022-12-28 00:00:00,234695.27
2022-12-29 00:00:00,226297.58
2022-12-30 00:00:00,229577.06
2022-12-31 00:00:00,201140.58
2023-01-01 00:00:00,217694.94
2023-01-02 00:00:00,219388.31
2023-01-03 00:00:00,244042.57
2023-01-04 00:00:00,219715.74
2023-01-05 00:00:00,222600.31
2023-01-06 00:00:00,212386.68
2023-01-07 00:00:00,211448.70
2023-01-08 00:00:00,211445.40
2023-01-09 00:00:00,215084.30
2023-01-10 00:00:00,200110.37
2023-01-11 00:00:00,201655.10
2023-01-12 00:00:00,193419.34
2023-01-13 00:00:00,210731.38
2023-01-14 00:00:00,205698.67
2023-01-15 00:00:00,207509.78
2023-01-16 00:00:00,217309.33
2023-01-17 00:00:00,131187.70
